{
  "database": {
    "rules": "database.rules.json"
  },
  "firestore": {
    "rules": "firestore.rules",
    "indexes": "firestore.indexes.json"
  },
  "functions": {
    "predeploy": [
      "npm --prefix \"$RESOURCE_DIR\" run lint",
      "npm --prefix \"$RESOURCE_DIR\" run build"
    ]
  },
  "hosting": {
    "public": "dist",
    "ignore": ["firebase.json", "**/.*", "**/node_modules/**"],
    "predeploy": ["rm $RESOURCE_DIR/* -rf && npm run build"],
    "rewrites": [
      {
        "source": "**",
        "destination": "/index.html"
      }
    ],
    "headers": [
      {
        "source": "**/*.@(eot|otf|ttf|ttc|woff|font.css)",
        "headers": [
          {
            "key": "Access-Control-Allow-Origin",
            "value": "*"
          }
        ]
      },
      {
        "source": "**/*.@(jpg|jpeg|gif|png)",
        "headers": [
          {
            "key": "Cache-Control",
            "value": "max-age=31557600"
          }
        ]
      },
      {
        "source": "**/*.@(js|css|svg)",
        "headers": [
          {
            "key": "Cache-Control",
            "value": "max-age=31557600"
          }
        ]
      },
      {
        "source": "404.html",
        "headers": [
          {
            "key": "Cache-Control",
            "value": "max-age=300"
          }
        ]
      }
    ]
  },
  "storage": {
    "rules": "storage.rules"
  }
}
